module gitlab.com/keftcha/chaton

go 1.19

require (
	github.com/google/uuid v1.3.0
	github.com/mattn/go-isatty v0.0.14
	github.com/wsxiaoys/terminal v0.0.0-20160513160801-0940f3fc43a0
	google.golang.org/grpc v1.45.0
	google.golang.org/protobuf v1.28.0
)

require (
	github.com/golang/protobuf v1.5.2 // indirect
	golang.org/x/net v0.0.0-20220325170049-de3da57026de // indirect
	golang.org/x/sys v0.0.0-20220319134239-a9b59b0215f8 // indirect
	golang.org/x/text v0.3.7 // indirect
	google.golang.org/genproto v0.0.0-20220324131243-acbaeb5b85eb // indirect
)
